DengAI-Predicting-Disease-Spread
…
submission_format <- read_csv("submission_format.csv")

## Parsed with column specification:
## cols(
##   city = col_character(),
##   year = col_double(),
##   weekofyear = col_double(),
##   total_cases = col_double()
## )

features_tr

## # A tibble: 1,456 x 24
##    city   year weekofyear week_start_date ndvi_ne ndvi_nw ndvi_se ndvi_sw
##    <chr> <dbl>      <dbl> <date>            <dbl>   <dbl>   <dbl>   <dbl>
##  1 sj     1990         18 1990-04-30       0.123   0.104    0.198   0.178
##  2 sj     1990         19 1990-05-07       0.170   0.142    0.162   0.155
##  3 sj     1990         20 1990-05-14       0.0322  0.173    0.157   0.171
##  4 sj     1990         21 1990-05-21       0.129   0.245    0.228   0.236
##  5 sj     1990         22 1990-05-28       0.196   0.262    0.251   0.247
##  6 sj     1990         23 1990-06-04      NA       0.175    0.254   0.182
##  7 sj     1990         24 1990-06-11       0.113   0.0928   0.205   0.210
##  8 sj     1990         25 1990-06-18       0.0725  0.0725   0.151   0.133
##  9 sj     1990         26 1990-06-25       0.102   0.146    0.126   0.124
## 10 sj     1990         27 1990-07-02      NA       0.122    0.161   0.203
## # ... with 1,446 more rows, and 16 more variables:
## #   precipitation_amt_mm <dbl>, reanalysis_air_temp_k <dbl>,
## #   reanalysis_avg_temp_k <dbl>, reanalysis_dew_point_temp_k <dbl>,
## #   reanalysis_max_air_temp_k <dbl>, reanalysis_min_air_temp_k <dbl>,
## #   reanalysis_precip_amt_kg_per_m2 <dbl>,
## #   reanalysis_relative_humidity_percent <dbl>,
## #   reanalysis_sat_precip_amt_mm <dbl>,
## #   reanalysis_specific_humidity_g_per_kg <dbl>, reanalysis_tdtr_k <dbl>,
## #   station_avg_temp_c <dbl>, station_diur_temp_rng_c <dbl>,
## #   station_max_temp_c <dbl>, station_min_temp_c <dbl>,
## #   station_precip_mm <dbl>

labels_tr

## # A tibble: 1,456 x 4
##    city   year weekofyear total_cases
##    <chr> <dbl>      <dbl>       <dbl>
##  1 sj     1990         18           4
##  2 sj     1990         19           5
##  3 sj     1990         20           4
##  4 sj     1990         21           3
##  5 sj     1990         22           6
##  6 sj     1990         23           2
##  7 sj     1990         24           4
##  8 sj     1990         25           5
##  9 sj     1990         26          10
## 10 sj     1990         27           6
## # ... with 1,446 more rows

features_te

## # A tibble: 416 x 24
##    city   year weekofyear week_start_date ndvi_ne ndvi_nw ndvi_se ndvi_sw
##    <chr> <dbl>      <dbl> <date>            <dbl>   <dbl>   <dbl>   <dbl>
##  1 sj     2008         18 2008-04-29      -0.0189 -0.0189  0.103   0.0912
##  2 sj     2008         19 2008-05-06      -0.018  -0.0124  0.0820  0.0723
##  3 sj     2008         20 2008-05-13      -0.0015 NA       0.151   0.0915
##  4 sj     2008         21 2008-05-20      NA      -0.0199  0.124   0.126 
##  5 sj     2008         22 2008-05-27       0.0568  0.0398  0.0623  0.0759
##  6 sj     2008         23 2008-06-03      -0.044  -0.0305  0.132   0.0835
##  7 sj     2008         24 2008-06-10      -0.0443 -0.0249  0.132   0.159 
##  8 sj     2008         25 2008-06-17      NA       0.0822  0.144   0.117 
##  9 sj     2008         26 2008-06-24       0.0108  0.0499  0.101   0.117 
## 10 sj     2008         27 2008-07-01       0.0727  0.107   0.155   0.165 
## # ... with 406 more rows, and 16 more variables:
## #   precipitation_amt_mm <dbl>, reanalysis_air_temp_k <dbl>,
## #   reanalysis_avg_temp_k <dbl>, reanalysis_dew_point_temp_k <dbl>,
## #   reanalysis_max_air_temp_k <dbl>, reanalysis_min_air_temp_k <dbl>,
## #   reanalysis_precip_amt_kg_per_m2 <dbl>,
## #   reanalysis_relative_humidity_percent <dbl>,
## #   reanalysis_sat_precip_amt_mm <dbl>,
## #   reanalysis_specific_humidity_g_per_kg <dbl>, reanalysis_tdtr_k <dbl>,
## #   station_avg_temp_c <dbl>, station_diur_temp_rng_c <dbl>,
## #   station_max_temp_c <dbl>, station_min_temp_c <dbl>,
## #   station_precip_mm <dbl>

submission_format

## # A tibble: 416 x 4
##    city   year weekofyear total_cases
##    <chr> <dbl>      <dbl>       <dbl>
##  1 sj     2008         18           0
##  2 sj     2008         19           0
##  3 sj     2008         20           0
##  4 sj     2008         21           0
##  5 sj     2008         22           0
##  6 sj     2008         23           0
##  7 sj     2008         24           0
##  8 sj     2008         25           0
##  9 sj     2008         26           0
## 10 sj     2008         27           0
## # ... with 406 more rows

create two dataset, train and test

train <- left_join(x = features_tr, y = labels_tr, by = c("year", "weekofyear", "city"))

test <- left_join(x = features_te, y = submission_format, by = c("year", "weekofyear", "city"))

train 

## # A tibble: 1,456 x 25
##    city   year weekofyear week_start_date ndvi_ne ndvi_nw ndvi_se ndvi_sw
##    <chr> <dbl>      <dbl> <date>            <dbl>   <dbl>   <dbl>   <dbl>
##  1 sj     1990         18 1990-04-30       0.123   0.104    0.198   0.178
##  2 sj     1990         19 1990-05-07       0.170   0.142    0.162   0.155
##  3 sj     1990         20 1990-05-14       0.0322  0.173    0.157   0.171
##  4 sj     1990         21 1990-05-21       0.129   0.245    0.228   0.236
##  5 sj     1990         22 1990-05-28       0.196   0.262    0.251   0.247
##  6 sj     1990         23 1990-06-04      NA       0.175    0.254   0.182
##  7 sj     1990         24 1990-06-11       0.113   0.0928   0.205   0.210
##  8 sj     1990         25 1990-06-18       0.0725  0.0725   0.151   0.133
##  9 sj     1990         26 1990-06-25       0.102   0.146    0.126   0.124
## 10 sj     1990         27 1990-07-02      NA       0.122    0.161   0.203
## # ... with 1,446 more rows, and 17 more variables:
## #   precipitation_amt_mm <dbl>, reanalysis_air_temp_k <dbl>,
## #   reanalysis_avg_temp_k <dbl>, reanalysis_dew_point_temp_k <dbl>,
## #   reanalysis_max_air_temp_k <dbl>, reanalysis_min_air_temp_k <dbl>,
## #   reanalysis_precip_amt_kg_per_m2 <dbl>,
## #   reanalysis_relative_humidity_percent <dbl>,
## #   reanalysis_sat_precip_amt_mm <dbl>,
## #   reanalysis_specific_humidity_g_per_kg <dbl>, reanalysis_tdtr_k <dbl>,
## #   station_avg_temp_c <dbl>, station_diur_temp_rng_c <dbl>,
## #   station_max_temp_c <dbl>, station_min_temp_c <dbl>,
## #   station_precip_mm <dbl>, total_cases <dbl>

test

## # A tibble: 416 x 25
##    city   year weekofyear week_start_date ndvi_ne ndvi_nw ndvi_se ndvi_sw
##    <chr> <dbl>      <dbl> <date>            <dbl>   <dbl>   <dbl>   <dbl>
##  1 sj     2008         18 2008-04-29      -0.0189 -0.0189  0.103   0.0912
##  2 sj     2008         19 2008-05-06      -0.018  -0.0124  0.0820  0.0723
##  3 sj     2008         20 2008-05-13      -0.0015 NA       0.151   0.0915
##  4 sj     2008         21 2008-05-20      NA      -0.0199  0.124   0.126 
##  5 sj     2008         22 2008-05-27       0.0568  0.0398  0.0623  0.0759
##  6 sj     2008         23 2008-06-03      -0.044  -0.0305  0.132   0.0835
##  7 sj     2008         24 2008-06-10      -0.0443 -0.0249  0.132   0.159 
##  8 sj     2008         25 2008-06-17      NA       0.0822  0.144   0.117 
##  9 sj     2008         26 2008-06-24       0.0108  0.0499  0.101   0.117 
## 10 sj     2008         27 2008-07-01       0.0727  0.107   0.155   0.165 
## # ... with 406 more rows, and 17 more variables:
## #   precipitation_amt_mm <dbl>, reanalysis_air_temp_k <dbl>,
## #   reanalysis_avg_temp_k <dbl>, reanalysis_dew_point_temp_k <dbl>,
## #   reanalysis_max_air_temp_k <dbl>, reanalysis_min_air_temp_k <dbl>,
## #   reanalysis_precip_amt_kg_per_m2 <dbl>,
## #   reanalysis_relative_humidity_percent <dbl>,
## #   reanalysis_sat_precip_amt_mm <dbl>,
## #   reanalysis_specific_humidity_g_per_kg <dbl>, reanalysis_tdtr_k <dbl>,
## #   station_avg_temp_c <dbl>, station_diur_temp_rng_c <dbl>,
…
